
remnant_stagnation_disaster = {
	potential = {
		has_country_flag = dwarovar_remnant
		NOT = { has_country_flag = remnant_stagnation_disaster_end }
	}

	
	
	can_start = {
		always = yes
	}
	
	
	can_stop = {
        always = no
	}
	
	progress = {
		modifier = {
			factor = 100
			always = yes
		}
	}
	
	
	
	can_end = {
		custom_trigger_tooltip = {
			tooltip = awaken_remnant_tooltip
			always = no
		}
	}
	

	modifier = {
		colonists = -3
	}
	
	
	on_start = diggy_remnant_stagnation.1
	
	on_monthly = {
		events = {
			diggy_remnant_stagnation.3
		}
		random_events = { 
			1800 = 0
			
			100 = diggy_remnant_stagnation.4
			100 = diggy_remnant_stagnation.5
			100 = diggy_remnant_stagnation.6
			100 = diggy_remnant_stagnation.7
			100 = diggy_remnant_stagnation.8
		}
	}
}

